<?xml version="1.0" standalone="no"?>
<!DOCTYPE svg PUBLIC "-//W3C//DTD SVG 20010904//EN"
 "http://www.w3.org/TR/2001/REC-SVG-20010904/DTD/svg10.dtd">
<svg version="1.0" xmlns="http://www.w3.org/2000/svg"
 width="400.000000pt" height="400.000000pt" viewBox="0 0 400.000000 400.000000"
 preserveAspectRatio="xMidYMid meet">
<metadata>
Created by potrace 1.11, written by Peter Selinger 2001-2013
</metadata>
<g transform="translate(0.000000,400.000000) scale(0.100000,-0.100000)"
fill="#000000" stroke="none">
<path d="M0 2000 l0 -2000 2000 0 2000 0 0 2000 0 2000 -2000 0 -2000 0 0
-2000z m2047 286 c18 -25 51 -55 75 -68 42 -22 53 -22 438 -29 418 -6 447 -9
527 -58 39 -25 82 -97 99 -166 6 -30 15 -111 19 -182 l7 -128 -25 33 c-35 46
-83 80 -142 99 -41 13 -120 17 -440 23 -375 6 -392 7 -448 29 -72 29 -119 75
-144 141 l-20 52 -20 -49 c-30 -72 -75 -118 -141 -145 -55 -21 -72 -22 -462
-28 -335 -5 -412 -9 -448 -22 -59 -22 -105 -55 -133 -97 l-24 -35 -3 39 c-6
71 16 260 38 316 26 71 78 132 132 155 39 16 86 19 448 24 398 5 406 6 458 29
58 26 103 71 135 138 l21 44 11 -35 c5 -19 24 -55 42 -80z m-966 -1026 c12
-38 25 -70 29 -70 3 0 17 32 30 70 32 93 54 96 64 9 10 -98 8 -141 -6 -137 -8
3 -15 33 -18 84 l-5 79 -30 -80 c-17 -44 -35 -79 -40 -78 -5 1 -21 35 -36 75
l-27 73 -6 -60 c-4 -33 -8 -66 -9 -74 -2 -15 -22 -18 -22 -3 1 4 5 46 9 95 7
73 11 87 26 87 13 0 24 -18 41 -70z m209 -4 c0 -79 13 -106 50 -106 37 0 50
27 50 106 0 59 3 74 15 74 12 0 15 -13 15 -60 0 -109 -40 -158 -109 -134 -36
13 -51 49 -51 127 0 53 3 67 15 67 12 0 15 -15 15 -74z m280 59 c0 -13 -7 -15
-33 -10 -25 5 -37 2 -48 -11 -12 -15 -12 -18 5 -28 65 -38 81 -54 84 -78 4
-37 -22 -58 -74 -58 -31 0 -44 4 -44 14 0 11 10 13 38 9 28 -4 42 -1 52 12 13
15 12 19 -7 34 -11 9 -35 24 -52 33 -58 32 -30 98 41 98 28 0 38 -4 38 -15z
m172 0 c-2 -5 -14 -9 -27 -8 -24 2 -24 0 -27 -84 -2 -58 -7 -88 -15 -91 -10
-3 -13 19 -13 87 l0 91 -30 -6 c-24 -5 -30 -3 -30 10 0 15 10 16 73 14 42 -2
71 -7 69 -13z m144 -74 c19 -47 34 -91 34 -98 0 -25 -20 -13 -34 22 -13 31
-19 35 -51 35 -32 0 -38 -4 -51 -35 -14 -34 -34 -47 -34 -23 0 7 16 52 37 101
24 59 41 87 51 85 7 -2 29 -41 48 -87z m184 76 c0 -9 -12 -14 -32 -14 -93 0
-88 -145 5 -147 52 -1 49 -26 -2 -26 -55 0 -90 32 -98 87 -5 39 -2 46 30 78
36 36 97 50 97 22z m80 -32 l0 -45 40 0 40 0 0 45 c0 33 4 45 15 45 12 0 15
-18 15 -101 0 -76 -3 -100 -12 -97 -7 3 -14 23 -16 46 -3 42 -4 42 -42 42 -38
0 -39 0 -42 -42 -2 -23 -9 -43 -15 -46 -10 -3 -13 21 -13 97 0 83 3 101 15
101 11 0 15 -12 15 -45z m275 30 c0 -5 -19 -11 -43 -13 -40 -3 -43 -5 -40 -30
3 -24 7 -27 36 -24 24 2 32 -1 32 -12 0 -12 -10 -16 -35 -16 -32 0 -35 -2 -35
-30 0 -29 2 -30 45 -30 34 0 45 -4 45 -15 0 -13 -11 -15 -55 -13 -30 2 -55 6
-55 11 0 4 0 48 0 98 l0 90 53 -3 c28 -2 52 -7 52 -13z m135 -70 l0 -85 45 0
c33 0 45 -4 45 -15 0 -12 -13 -15 -55 -15 l-55 0 0 100 c0 60 4 100 10 100 6
0 10 -35 10 -85z m237 2 c18 -45 35 -90 39 -99 12 -33 -22 -19 -37 15 -12 27
-20 33 -51 35 -34 3 -38 0 -52 -32 -8 -20 -20 -36 -25 -36 -16 0 -14 7 26 107
24 59 43 93 53 93 10 0 27 -30 47 -83z m167 73 c27 -10 36 -46 16 -66 -8 -8
-6 -15 5 -24 8 -7 15 -26 15 -42 0 -24 -6 -32 -35 -44 -19 -7 -48 -14 -65 -14
l-30 0 0 100 0 100 34 0 c19 0 46 -4 60 -10z"/>
<path d="M1831 1299 c-1 -4 -8 -23 -16 -43 l-15 -36 30 0 c18 0 30 5 30 13 -1
13 -28 76 -29 66z"/>
<path d="M2731 1265 c-15 -42 -12 -48 23 -43 l25 3 -17 39 -17 38 -14 -37z"/>
<path d="M2897 1303 c-4 -3 -7 -17 -7 -30 0 -21 4 -24 32 -21 52 5 49 57 -3
58 -9 0 -19 -3 -22 -7z"/>
<path d="M2897 1224 c-4 -4 -7 -20 -7 -36 0 -25 3 -28 34 -28 42 0 66 24 45
45 -17 17 -62 29 -72 19z"/>
</g>
</svg>
